# Blender MTL File: 'BLUMEC.blend'
# Material Count: 7

newmtl BODY
Ns 96.078431
Ka 0.000000 0.000000 0.000000
Kd 0.800000 0.800000 0.800000
Ks 0.000000 0.000000 0.000000
Ni 1.000000
d 1.000000
illum 1
map_Kd /home/demensdeum/Sources/2fsglmodel/build/2FSGLModel/BODY.bmp

newmtl EYE
Ns 96.078431
Ka 0.000000 0.000000 0.000000
Kd 0.002426 0.062609 0.207916
Ks 1.000000 1.000000 1.000000
Ni 1.000000
d 1.000000
illum 2
map_Kd /home/demensdeum/Sources/2fsglmodel/build/2FSGLModel/BODY.bmp

newmtl FOOT
Ns 96.078431
Ka 0.000000 0.000000 0.000000
Kd 0.800000 0.800000 0.800000
Ks 0.000000 0.000000 0.000000
Ni 1.000000
d 1.000000
illum 1
map_Kd /home/demensdeum/Sources/2fsglmodel/build/2FSGLModel/FOOT.bmp

newmtl LEG_DOWN
Ns 96.078431
Ka 0.000000 0.000000 0.000000
Kd 0.800000 0.800000 0.800000
Ks 0.000000 0.000000 0.000000
Ni 1.000000
d 1.000000
illum 1
map_Kd /home/demensdeum/Sources/2fsglmodel/build/2FSGLModel/DOWN.bmp

newmtl LEG_UP
Ns 96.078431
Ka 0.000000 0.000000 0.000000
Kd 0.800000 0.800000 0.800000
Ks 0.000000 0.000000 0.000000
Ni 1.000000
d 1.000000
illum 1
map_Kd /home/demensdeum/Sources/2fsglmodel/build/2FSGLModel/LEG UP.bmp

newmtl L_ARM
Ns 96.078431
Ka 0.000000 0.000000 0.000000
Kd 0.800000 0.800000 0.800000
Ks 0.000000 0.000000 0.000000
Ni 1.000000
d 1.000000
illum 1
map_Kd /home/demensdeum/Sources/2fsglmodel/build/2FSGLModel/ARM R.bmp

newmtl L_GUN
Ns 96.078431
Ka 0.000000 0.000000 0.000000
Kd 0.800000 0.800000 0.800000
Ks 0.000000 0.000000 0.000000
Ni 1.000000
d 1.000000
illum 1
map_Kd /home/demensdeum/Sources/2fsglmodel/build/2FSGLModel/L GUN.bmp
